…
Here is the data frame summarising all confirmed information we have in
those previously exported tables:

``` r
current_city_confirmed_df <- purrr::map_dfr(.x = current_fixed_files_v,
                                            .f = function(x) {
  sn_import_from_manually_fixed(input_df = x,
                                return_df_only = TRUE)
})
#> Warning: One or more parsing issues, see `problems()` for details
current_city_confirmed_df
#> # A tibble: 3,198 × 14
#>    gisco_id stree…¹ country named…² person gender categ…³ checked ignore named…⁴
#>    <chr>    <chr>   <chr>   <chr>    <int> <chr>  <chr>     <int>  <int>   <int>
#>  1 DE_1100… Abbe L… DE      Q30850…      1 <NA>   <NA>          1     NA      NA
#>  2 DE_1100… Abbest… DE      Q76359       1 <NA>   <NA>          1     NA      NA
#>  3 DE_1100… Abram-… DE      Q331067      1 <NA>   <NA>          1     NA      NA
#>  4 DE_1100… Abtstr… DE      Q174178      1 <NA>   <NA>          1     NA      NA
#>  5 DE_1100… Achenb… DE      Q76416       1 <NA>   <NA>          1     NA      NA
#>  6 DE_1100… Achill… DE      Q33083…      1 <NA>   <NA>          1     NA      NA
#>  7 DE_1100… Adalbe… DE      Q347939      1 <NA>   <NA>          1     NA      NA
#>  8 DE_1100… Adam-K… DE      Q87850       1 <NA>   <NA>          1     NA      NA
#>  9 DE_1100… Adam-v… DE      Q66002       1 <NA>   <NA>          1     NA      NA
#> 10 DE_1100… Adamst… DE      Q33083…      1 <NA>   <NA>          1     NA      NA
#> # … with 3,188 more rows, 4 more variables: named_after_custom_label <chr>, tag <chr>,
#> #   session <chr>, time <dttm>, and abbreviated variable names ¹​street_name,
#> #   ²​named_after_id, ³​category, ⁴​named_after_n
```
…
``` r
sn_get_street_named_after_id(gisco_id = current_city)
#> # A tibble: 0 × 14
#> # … with 14 variables: gisco_id <chr>, street_name <chr>, country <chr>,
#> #   named_after_id <chr>, person <int>, gender <chr>, category <chr>,
#> #   checked <int>, ignore <int>, named_after_n <int>, named_after_custom_label <chr>,
#> #   tag <chr>, session <chr>, time <dttm>
```

Either way, `current_city_confirmed_df` should now include all confirmed
humans as well as the custom fixed non-humans.

``` r
current_city_confirmed_df
#> # A tibble: 3,198 × 14
#>    gisco_id stree…¹ country named…² person gender categ…³ checked ignore named…⁴
#>    <chr>    <chr>   <chr>   <chr>    <int> <chr>  <chr>     <int>  <int>   <int>
#>  1 DE_1100… Abbe L… DE      Q30850…      1 <NA>   <NA>          1     NA      NA
#>  2 DE_1100… Abbest… DE      Q76359       1 <NA>   <NA>          1     NA      NA
#>  3 DE_1100… Abram-… DE      Q331067      1 <NA>   <NA>          1     NA      NA
#>  4 DE_1100… Abtstr… DE      Q174178      1 <NA>   <NA>          1     NA      NA
#>  5 DE_1100… Achenb… DE      Q76416       1 <NA>   <NA>          1     NA      NA
#>  6 DE_1100… Achill… DE      Q33083…      1 <NA>   <NA>          1     NA      NA
#>  7 DE_1100… Adalbe… DE      Q347939      1 <NA>   <NA>          1     NA      NA
#>  8 DE_1100… Adam-K… DE      Q87850       1 <NA>   <NA>          1     NA      NA
#>  9 DE_1100… Adam-v… DE      Q66002       1 <NA>   <NA>          1     NA      NA
#> 10 DE_1100… Adamst… DE      Q33083…      1 <NA>   <NA>          1     NA      NA
#> # … with 3,188 more rows, 4 more variables: named_after_custom_label <chr>, tag <chr>,
#> #   session <chr>, time <dttm>, and abbreviated variable names ¹​street_name,
#> #   ²​named_after_id, ³​category, ⁴​named_after_n
```
…
output_df <- sn_export_checked(
  gisco_id = current_city,
  source = "fixed_csv",  # this could be set to database 
  include_image_credits = TRUE, # useful if you plan to use images, but time consuming, as this implies a separate API call
  unlist = TRUE,  # needs to be set to TRUE for CSV, but better set to FALSE if doing further processing in R
  # additional_properties = c("P39", "P509", "P140", "P611", "P411", "P241", "P410", "P97", "P607", "P27", "P172") # this is if you want more properties
  export_folder = "sn_data_export", # here is where you'll find your files if you export them
  export_format = "csv" # can also be "geojson". Leave it to NULL if you do not intend to export
)
#> Warning: One or more parsing issues, see `problems()` for details
#> Warning: <Pool> uses an old dbplyr interface
#> ℹ Please install a newer version of the package or contact the maintainer
#> This warning is displayed once every 8 hours.
output_df
#> # A tibble: 3,198 × 71
#>    gisco_id stree…¹ country named…² person gender categ…³ checked ignore named…⁴
#>    <chr>    <chr>   <chr>   <chr>    <int> <chr>  <chr>     <int>  <int>   <int>
#>  1 DE_1100… Abbe L… DE      Q30850…      1 <NA>   <NA>          1     NA      NA
#>  2 DE_1100… Abbest… DE      Q76359       1 <NA>   <NA>          1     NA      NA
#>  3 DE_1100… Abram-… DE      Q331067      1 <NA>   <NA>          1     NA      NA
#>  4 DE_1100… Abtstr… DE      Q174178      1 <NA>   <NA>          1     NA      NA
#>  5 DE_1100… Achenb… DE      Q76416       1 <NA>   <NA>          1     NA      NA
#>  6 DE_1100… Achill… DE      Q33083…      1 <NA>   <NA>          1     NA      NA
#>  7 DE_1100… Adalbe… DE      Q347939      1 <NA>   <NA>          1     NA      NA
#>  8 DE_1100… Adam-K… DE      Q87850       1 <NA>   <NA>          1     NA      NA
#>  9 DE_1100… Adam-v… DE      Q66002       1 <NA>   <NA>          1     NA      NA
#> 10 DE_1100… Adamst… DE      Q33083…      1 <NA>   <NA>          1     NA      NA
#> # … with 3,188 more rows, 61 more variables: named_after_custom_label <chr>, tag <chr>,
#> #   session <chr>, time <dttm>, label <chr>, description <chr>,
#> #   instance_of <chr>, instance_of_label <chr>, sex_or_gender <chr>,
#> #   sex_or_gender_label <chr>, occupation <chr>, occupation_label <chr>,
#> #   date_of_birth <chr>, date_of_birth_label <chr>, place_of_birth <chr>,
#> #   place_of_birth_label <chr>, date_of_death <chr>, date_of_death_label <chr>,
#> #   place_of_death <chr>, place_of_death_label <chr>, position_held <chr>, …
```
…
